﻿## Interface: 80100
## Title: 修复组队问题
## Notes: 和恶魔为伍的勇气,你有吗?
## Title-zhCN: |c0066FFFF修复组队问题|r
## Notes-zhCN: |cFF34A2F7和恶魔为伍的勇气,你有吗?|r
## Version: 1070200
## Author: @未来文乐 https://gitlab.com/lvci0317

Cyclone.lua
Joker.lua




